M3 ERROR: M3ComponentEc component m3bip_actuator_ec_lg0j0 is not online
M3 ERROR: M3ComponentEc component m3bip_actuator_ec_lg0j1 is not online
M3 ERROR: M3ComponentEc component m3bip_actuator_ec_lg0j2 is not online
M3 ERROR: M3ComponentEc component m3bip_actuator_ec_lg1j0 is not online
M3 ERROR: M3ComponentEc component m3bip_actuator_ec_lg1j1 is not online
M3 ERROR: M3ComponentEc component m3bip_actuator_ec_lg1j2 is not online
M3 ERROR: M3ComponentEc component m3uta_imu_ec_016 is not online
M3 ERROR: M3ComponentEc component m3uta_pwr_ec_016 is not online
