\relax 
\@writefile{lof}{\contentsline {figure}{\numberline {1}{\ignorespaces Theoretical performance specifications. Contour levels represent the allowable time at that operating point before the motor overheats when starting from cold. Blue segment represents continuous operation. Note that for operation above 50 Nm, limitations of the motor amp limit current above this operating point to only 2.7 seconds. However, repeated excursions to high torque are possible within the boundaries.}}{1}}
\@writefile{lof}{\contentsline {figure}{\numberline {2}{\ignorespaces Overlay of measured performance. Random perturbations were applied to the actuator to sample its operating space. Two separate tests exercised the high torque and the high velocity regions of the performance space. It is assumed that the high power region of the workspace is readily achieved, but difficult to test with the current experimental setup.}}{2}}
