0.000160701	0.00198819	-0.00513336	
0.00219945	0.0116608	-0.0105563	
-0.00164394	-0.00767966	0.00420435	
-0.00133149	-0.00534572	-7.66797e-05	
-0.00178419	-0.00554818	-0.00613258	
0.00158994	0.00464182	0.00673073	
-0.0080841	-0.0334048	0.0034637	
0.0039517	0.00599328	0.037227	
-0.000903103	0.000813014	-0.0167341	
-0.000457103	-0.00267702	0.00321157	
-0.00138861	-0.00459463	-0.00392868	
0.000357382	0.00390493	-0.00953309	
0.00136761	0.00292213	0.0117749	
0.00121919	0.00500865	-0.000717854	
0.00108876	0.00460656	-0.00081783	
6.55703e-05	-0.00291212	0.012139	
0.00252641	0.00880562	0.00522214	
-0.00195206	-0.0044883	-0.0130747	
7.63508e-05	0.000280251	0.000463236	
-0.00128633	-0.00455054	-0.00167727	
0.00011962	-8.36864e-05	0.0019453	
-0.00141644	-0.00232132	-0.0109577	
0.000656642	0.00235806	0.00124888	
-0.000656396	-0.00576771	0.0121595	
0.000193289	0.00221644	-0.00536134	
6.12801e-05	0.0022653	-0.00745635	
-0.000105993	-0.00165266	0.00433047	
0.000712873	0.00470045	-0.0072712	
-3.66871e-05	-0.00059027	0.00169489	
-0.000425531	-0.00315978	0.00514336	
0.000253069	0.000645815	0.00134299	
0.000475967	0.000850205	0.00415642	
0.00448398	0.0196792	-0.0049757	
0.00173946	0.00610358	0.00343097	
0.00162666	0.00903053	-0.00976039	
0.00623681	0.0212577	0.0146868	
0.00343651	0.0152127	-0.00428346	
0.0024639	0.0138275	-0.0140444	
0.00417262	0.0103953	0.0246449	
-0.000371159	0.000560502	-0.00819008	
0.00559646	0.023198	-0.00280382	
0.0013155	0.00690081	-0.00553429	
0.00311248	0.0145002	-0.00731269	
0.00287772	0.0109075	0.00311316	
0.00796855	0.0242857	0.0271621	
0.00358886	0.0177485	-0.0116949	
0.00162529	0.00568829	0.00318794	
0.0058691	0.0197854	0.0145844	
0.00257976	0.0149514	-0.0165144	
0.00313389	0.00938258	0.0116594	
0.00478249	0.0215868	-0.00699418	
0.0103574	0.0487125	-0.0280898	
0.011925	0.0398732	0.0303038	
0.00201826	0.0111162	-0.0105352	
0.00428434	0.0225691	-0.0260346	
0.00462084	0.0126539	0.0219306	
0.00617353	0.020378	0.0162469	
-0.00348134	-0.00341062	-0.0384386	
-0.000329121	-0.00169706	0.00135267	
0.00678714	0.0273751	-0.000453519	
0.00689926	0.0205849	0.0261974	
0.00246964	0.0123459	-0.00949296	
0.00215836	0.00956122	-0.00310118	
0.0073856	0.0238268	0.0223291	
0.00270268	0.0133382	-0.0091268	
0.00212105	0.0121298	-0.0158433	
0.00996533	0.0418826	-0.00648276	
0.00789664	0.0300771	0.00571242	
0.00860209	0.029582	0.0179413	
0.00637442	0.0374084	-0.0374122	
0.00477446	0.0217342	-0.00904674	
0.00758344	0.0232079	0.0264678	
0.0057462	0.0274486	-0.0156486	
0.00223089	0.0162161	-0.0270566	
0.00737142	0.0265423	0.011225	
0.0110696	0.0447923	-0.00128696	
0.000179585	0.00113321	-0.0011334	
0.00521966	0.0212064	-0.00114132	
-6.007e-05	0.00724549	-0.0263253	
0.00701408	0.036856	-0.0310324	
0.00938597	0.0159963	0.0783792	
-0.0059014	-0.0138238	-0.0341187	
-0.000334577	0.0054317	-0.0252856	
0.00368422	-0.00141491	0.0564659	
0.00182651	0.0162878	-0.0320435	
0.0039548	0.0337256	-0.0606878	
0.00228727	-0.00302985	0.0425479	
-0.00460541	-0.00428116	-0.0531906	
-0.000998833	-0.0079531	0.0133442	
-0.00672529	-0.0247261	-0.00863483	
2.35367e-05	-0.00542832	0.018865	
-0.00502386	-0.0105752	-0.0354886	
-0.00368005	-0.0130817	-0.00639902	
0.0232405	0.0793158	0.0502364	
0.00925466	0.0554599	-0.0623794	
-0.000364858	-0.00227094	0.00345015	
0.00427635	0.0124663	0.0172305	
0.00483471	0.0162953	0.0119042	
0.0006256	-0.00799764	0.0370935	
-0.00124763	-0.00041811	-0.0155927	
-0.00125024	-0.000419012	-0.0155941	
0.00282388	0.0078985	0.0113688	
0.000165233	-0.00286635	0.0119389	
0.0024518	0.0123863	-0.00966756	
0.00241785	0.0127969	-0.0102372	
0.00146068	0.00598291	-5.68321e-05	
-0.00103975	-0.000880112	-0.0122734	
0.00534133	0.0166032	0.0172768	
-0.000663518	-0.00407989	0.00400477	
0.000160828	0.00529057	-0.015702	
0.00226806	0.00770681	0.00501647	
0.000175255	-0.00417712	0.0172863	
0.000322378	0.000848109	0.00171588	
-0.000135352	0.00238313	-0.00972599	
6.49189e-05	-0.00481222	0.0163851	
0.00198314	0.00696493	0.00343193	
0.000882905	0.00488541	-0.00598302	
0.00251535	0.00697913	0.0103277	
-1.79529e-06	0.00240454	-0.0072045	
0.000405557	0.00630071	-0.0169981	
0.00052544	-0.00566849	0.0254157	
0.00205299	-0.000855874	0.0307306	
0.00115607	0.00734023	-0.00973817	
0.00108329	0.00685422	-0.00898023	
0.000279486	0.0023237	-0.00363565	
-0.000361734	6.31218e-05	-0.00503839	
0.000214284	-6.46101e-05	0.00286055	
0.000447371	0.00393836	-0.00697312	
-0.00152213	-0.00402066	-0.00716155	
-0.000203169	-0.00352696	0.00826543	
0.000498372	0.00703981	-0.0167799	
0.000240766	0.00406581	-0.0111998	
-0.000897204	0.00662019	-0.0330787	
-0.00108251	-0.00459483	0.000865647	
-0.000538828	0.0023985	-0.0152551	
0.00141753	0.00465815	0.00345662	
-0.00326292	-0.00712461	-0.0206619	
-0.00248848	-0.00327537	-0.0216142	
-0.00414547	-0.0153108	-0.00442353	
-0.00488106	-0.0130805	-0.0228898	
-0.000774737	0.00180987	-0.0160529	
-0.00275949	-0.00481632	-0.0202525	
-0.00116911	-0.00189361	-0.00963464	
-0.00210085	-0.00548138	-0.0106243	
-0.194302	-0.969689	0.636978	
0.114143	0.593545	-0.431556	
-0.0682603	-0.299041	0.0672007	
0.00639592	0.0396024	-0.0540697	
0.0165543	0.113816	-0.148516	
0.00867417	-0.0202389	0.201953	
-0.0112896	0.0176182	-0.217297	
0.00793407	0.00201873	0.115935	
-0.00794474	-0.0233621	-0.0328526	
-0.00238022	-0.00925536	-0.00115349	
0.0145804	0.0406676	0.0711273	
-0.00439292	0.00503579	-0.0840741	
0.0088988	0.0243626	0.0417035	
-0.00637142	-0.0204538	-0.0196792	
0.00261479	0.0113755	-0.00554065	
0.000122037	-0.0105342	0.0354896	
-0.00292832	-0.00480296	-0.0291995	
0.00360444	0.0117945	0.0101609	
-0.00181889	-0.00547515	-0.00663417	
-0.00164828	-0.00785243	0.00423911	
0.00348887	0.0121689	0.0071275	
0.000398595	0.00530842	-0.0135887	
0.000863395	0.00020585	0.011279	
-0.000494832	-0.000642948	-0.00486501	
0.000392303	0.00217601	-0.00208843	
0.00195837	0.00567915	0.00778721	
-0.00099802	-0.00325286	-0.00293743	
0.00103778	0.00473778	-0.00191955	
-0.00132027	-0.00606551	0.00298593	
-0.000244313	-0.00155094	0.00203935	
0.000548558	0.00255511	-0.00124101	
0.00063366	0.00102889	0.004694	
-0.00134898	-0.00386912	-0.00544475	
-6.45911e-05	-8.57706e-05	-0.000566142	
0.00170006	0.00676443	0.00059316	
0.000405277	0.000938747	0.00252669	
0.000827306	0.00286914	0.00232406	
-0.000656522	-0.00281454	0.000604645	
0.00185232	0.00824428	-0.00269317	
0.00272398	0.0106097	0.000812271	
0.00111463	0.00534587	-0.00324773	
-7.7443e-05	-0.000527691	0.00202388	
-0.00130615	-0.00579449	0.00234803	
