-0.00277877	0.000692219	-0.00514114	
-0.00157649	0.00897154	-0.0105954	
0.000385778	-0.00660595	0.00425818	
0.00216468	-0.00537501	-5.25384e-05	
-0.00396619	-0.00708319	-0.0061219	
0.00426878	0.00639616	0.00673186	
-0.00323801	-0.032396	0.00362222	
-0.000283724	0.0152252	0.0371778	
0.000686469	-0.003355	-0.0167422	
-0.000741703	-0.00186848	0.00322512	
0.000653898	-0.00556787	-0.00390699	
0.00356381	0.00153081	-0.0095653	
-0.00800698	0.00583099	0.0118063	
0.00540368	0.00484319	-0.000747185	
-0.000529149	0.00437403	-0.000842745	
0.000652869	0.000135633	0.012177	
-0.00115476	0.0100484	0.00516912	
0.00132938	-0.00773186	-0.0130547	
-0.00499244	0.000363574	0.000462322	
-0.0062505	-0.0049982	-0.00164668	
0.00237803	0.000415416	0.00194698	
0.00509066	-0.00494373	-0.0108992	
-0.00100705	0.00266447	0.00123613	
-0.00338221	-0.00273056	0.0122015	
0.00350428	0.000887416	-0.00537291	
0.00178137	0.000406499	-0.00746801	
0.00415066	-0.000542151	0.00433957	
0.00376817	0.00288705	-0.00732594	
-0.00120943	-0.000171474	0.00169843	
0.00536329	-0.00183347	0.00515929	
0.000622632	0.000978547	0.00133976	
-0.00704016	0.0018382	0.00415192	
-0.00863444	0.018237	-0.00513221	
-0.00284623	0.00689694	0.00340082	
4.77084e-05	0.00655278	-0.00989914	
-0.0134039	0.0246834	0.0145914	
-0.00222401	0.0139584	-0.00431781	
-0.00188102	0.010216	-0.0141855	
-0.00380343	0.0165099	0.0247058	
0.00338014	-0.0014717	-0.00823181	
-0.00318521	0.0224532	-0.00293284	
-0.00527027	0.00545397	-0.00556068	
-0.00433369	0.0125986	-0.0073668	
-0.00412038	0.0116189	0.00306022	
-0.0110758	0.0306702	0.027098	
-0.00323023	0.0147061	-0.0117487	
-0.00217396	0.0064359	0.00317995	
-0.00727681	0.0233075	0.0145724	
-0.0022622	0.0107352	-0.0166031	
-0.00334481	0.0121985	0.0116626	
-0.00472241	0.0195516	-0.00696106	
0.00015175	0.0416095	-0.0281495	
-0.0101624	0.0471992	0.0304276	
-0.000632811	0.00841643	-0.0105393	
0.0043742	0.0161442	-0.0261597	
-0.0039966	0.018072	0.0220134	
0.00671992	0.02445	0.0163561	
0.00338575	-0.0129697	-0.0385429	
-0.00286841	-0.00134034	0.001351	
0.00105479	0.0271445	-0.000425184	
-0.00393294	0.0270419	0.0263792	
-0.00799947	0.010004	-0.00950549	
-0.00741246	0.0087754	-0.00305825	
-0.01599	0.0293411	0.0225285	
-0.00113387	0.0110244	-0.00906069	
0.000323581	0.00818957	-0.0159119	
-0.00186402	0.0400729	-0.00631854	
0.00508224	0.0313999	0.00591898	
-0.00265505	0.0339047	0.0182336	
0.00492672	0.0277304	-0.0369517	
-0.00925073	0.0194487	-0.00887942	
-0.00995945	0.0297903	0.0268081	
-0.00143842	0.0234401	-0.0154545	
-0.00340326	0.00946023	-0.0269844	
-0.00997108	0.0294483	0.0115588	
-0.000911546	0.0443546	-0.00087322	
-0.00644429	0.000905446	-0.00113356	
-0.0056228	0.0209818	-0.00091323	
0.00391582	0.000607164	-0.0263575	
-0.000144986	0.0289017	-0.03108	
-0.0168531	0.0358179	0.0790944	
0.00222388	-0.0222244	-0.0344486	
-0.0141228	-0.00068935	-0.0252761	
-0.00731726	0.0127475	0.0567422	
0.00514704	0.00820498	-0.0318156	
0.00269195	0.0183734	-0.0605303	
0.0022573	0.00754124	0.0427392	
-0.000404165	-0.0176868	-0.0539761	
-0.0139146	-0.00438006	0.0132993	
0.0013643	-0.0270448	-0.00900106	
-0.00336203	-0.000652069	0.0188961	
-0.0034904	-0.0193886	-0.0358578	
0.00500481	-0.0146852	-0.00661177	
-0.0146744	0.0918654	0.0515618	
0.0189428	0.0393335	-0.0618687	
0.0178026	-0.00169734	0.00342889	
-0.0176416	0.0170159	0.017548	
-0.0035419	0.0194127	0.0122746	
-0.00402946	0.00134347	0.0371959	
0.00422445	-0.00435951	-0.0157035	
0.00422445	-0.00435951	-0.0157035	
-0.000846114	0.0106358	0.0115573	
-0.00215197	0.000157481	0.0119767	
-0.00366265	0.0100227	-0.00953115	
0.00525047	0.0100813	-0.0101006	
0.00150308	0.00586601	4.06407e-05	
-0.012065	-0.0037437	-0.0123681	
-0.00358612	0.0209196	0.0176815	
-0.00255219	-0.00299416	0.00394544	
-0.0102463	0.00151645	-0.0157197	
-0.00666682	0.00905537	0.00518414	
-0.00340145	0.000211552	0.0173489	
0.00590809	0.00117005	0.00173873	
-0.000922312	-3.71613e-05	-0.00975525	
-0.00358771	-0.000653343	0.0163806	
-0.0030036	0.00779857	0.00356618	
0.00486282	0.00332318	-0.00601492	
-0.00594773	0.00956852	0.0105105	
0.000496567	0.000595189	-0.00717517	
-0.0079393	0.00213647	-0.0170825	
-0.0107474	0.000860655	0.0254995	
-0.00103064	0.00680185	0.0309191	
-0.000321356	0.00488106	-0.00973487	
0.000665917	0.00457811	-0.0089399	
-0.0128464	0.00158071	-0.00363983	
-0.00191645	-0.00115181	-0.00506588	
-0.00598699	0.000743514	0.00287917	
0.00116228	0.00215444	-0.00695596	
-0.0073912	-0.0056231	-0.00726301	
-0.0045689	-0.00134961	0.00823992	
-0.0019209	0.00284118	-0.0167869	
0.00288361	0.00122583	-0.0111522	
0.000261848	-0.00164076	-0.0331837	
0.00392322	-0.00444507	0.000785243	
-0.000128626	-0.00139919	-0.0152868	
-0.00446215	0.00557885	0.00352955	
0.00298824	-0.0122531	-0.0208448	
0.00075315	-0.0085627	-0.0217116	
0.00650202	-0.016313	-0.00463421	
0.00588718	-0.0187579	-0.0231528	
0.00476791	-0.00227019	-0.0160607	
0.00581226	-0.00982061	-0.0203219	
-0.00307137	-0.0042151	-0.00964801	
0.000991885	-0.00810393	-0.0106876	
-0.146146	-0.801213	0.637303	
0.189158	0.48034	-0.424797	
-0.045555	-0.27888	0.0650977	
-0.00358019	0.02607	-0.0539904	
0.0515714	0.0757827	-0.146572	
-0.0762426	0.0292901	0.201735	
0.0748022	-0.0355997	-0.216765	
-0.0354455	0.0305531	0.115755	
0.0320944	-0.0310543	-0.0326274	
-0.000174332	-0.00953705	-0.00104721	
-0.035784	0.0578013	0.0708892	
0.00691381	-0.0158613	-0.0839878	
-0.0222927	0.0342377	0.0414338	
0.00914085	-0.0251142	-0.0195107	
0.0150961	0.0101007	-0.00568334	
-0.0133319	-0.00174801	0.0354056	
-0.00185025	-0.0121765	-0.0292373	
-0.0154556	0.0141152	0.0100741	
-0.00199196	-0.00708006	-0.00659554	
0.00326729	-0.0067289	0.00424146	
-0.00590583	0.0138263	0.00708456	
0.00323343	0.00190286	-0.0136405	
-0.00436486	0.00297671	0.0112551	
0.00818166	-0.00181188	-0.00486103	
0.00215214	0.00164443	-0.00209574	
-0.00135634	0.00754076	0.00776496	
0.000614048	-0.00397605	-0.00293037	
-0.00237777	0.00421821	-0.00192462	
0.00287144	-0.00531111	0.00302885	
0.000185859	-0.00103078	0.00205312	
0.00121859	0.00222872	-0.0012514	
0.00538363	0.00219777	0.00469586	
-0.00331632	-0.00518979	-0.0054327	
-0.00472847	-0.000233625	-0.000565861	
-0.00435326	0.00683791	0.000568021	
0.00167016	0.00157323	0.0025293	
-0.00596343	0.00340611	0.00231917	
-0.00404306	-0.00264594	0.000611856	
-0.0029624	0.00750521	-0.00272351	
0.00133072	0.0108892	0.000760359	
0.00450422	0.0045146	-0.00326774	
-0.00881594	-6.22263e-05	0.00203737	
-0.0011299	-0.00520288	0.00238701	
