0	0	-0.3	
0	0	-0.3	
0	0	-0.3	
0	0	-0.3	
0	0	-0.3	
0	0	-0.3	
0	0	-0.3	
0	0	-0.3	
0	0	-0.3	
0	0	-0.3	
0	0	-0.3	
0	0	-0.3	
0	0	0	
0	0	0	
0	0	0	
0	0	0	
0	0	0	
0	0	0	
0	0	0	
0	0	0	
0	0	0	
0	0	0	
0	0	0	
0	0	0	
0	0	0	
0	0	0	
0	0	0	
0	0	0.00383763	
0	0	0.0155898	
0	0	0.0278856	
0	0	0.0392751	
0	0	0.0504728	
0	0	0.0612519	
0	0	0.071408	
0	0	0.081093	
0	0	0.0900059	
0	0	0.0982799	
0	0	0.105739	
0	0	0.11232	
0	0	0.117911	
0	0	0.122594	
0	0	0.126224	
0	0	0.128855	
0	0	0.130417	
0	0	0.130899	
0	0	0.130306	
0	0	0.128632	
0	0	0.125929	
0	0	0.122156	
0	0	0.11737	
0	0	0.111682	
0	0	0.105007	
0	0	0.0974607	
0	0	0.0888045	
0	0	0.0797954	
0	0	0.0700238	
0	0	0.0596714	
0	0	0.0489511	
0	0	0.0377029	
0	0	0.026142	
0	0	0.0145004	
0	0	0.00260431	
0	0	0	
0	0	0	
0	0	0	
0	0	0	
0	0	0	
