0	-0.019965	-1.97736e-62	
0	-0.0199062	-1.97736e-62	
0	-0.0196591	-1.97736e-62	
0	-0.0194756	-1.97736e-62	
0	-0.0192543	-1.97736e-62	
0	-0.0175422	-1.97736e-62	
0	-0.0170797	-1.97736e-62	
0	-0.0160447	-1.97736e-62	
0	-0.0154671	-1.97736e-62	
0	-0.0148517	-1.97736e-62	
0	-0.0142068	-1.97736e-62	
0	-0.0135179	-1.97736e-62	
0	-0.0127927	-1.97736e-62	
0	-0.0120317	-1.97736e-62	
0	-0.011245	-1.97736e-62	
0	-0.0104148	-1.97736e-62	
0	-0.00956076	-1.97736e-62	
0	-0.00866369	-1.97736e-62	
0	-0.00773399	-1.97736e-62	
0	-0.00678359	-1.97736e-62	
0	-0.0057911	-1.97736e-62	
0	-0.00476813	-1.97736e-62	
0	-0.0037277	-1.97736e-62	
0	-0.0026464	-1.97736e-62	
0	-0.00153697	-1.97736e-62	
0	-0.000413453	-1.97736e-62	
0	0.000749439	-1.97736e-62	
0	0.00193793	-1.97736e-62	
0	0.00315112	-1.97736e-62	
0	0.00437377	-1.97736e-62	
0	0.0056334	-1.97736e-62	
0	0.00690011	-1.97736e-62	
0	0.00820244	-1.97736e-62	
0	0.00952479	-1.97736e-62	
0	0.0108507	-1.97736e-62	
0	0.0122099	-1.97736e-62	
0	0.0135862	-1.97736e-62	
0	0.0149624	-1.97736e-62	
0	0.0163694	-1.97736e-62	
0	0.0177905	-1.97736e-62	
0	0.0192078	-1.97736e-62	
0	0.0206533	-1.97736e-62	
0	0.0221096	-1.97736e-62	
0	0.0235586	-1.97736e-62	
0	0.025033	-1.97736e-62	
0	0.0279858	-1.97736e-62	
0	0.0294792	-1.97736e-62	
0	0.0309767	-1.97736e-62	
0	0.0324599	-1.97736e-62	
0	0.0339623	-1.97736e-62	
0	0.0354655	-1.97736e-62	
0	0.0369511	-1.97736e-62	
0	0.0384525	-1.97736e-62	
0	0.0399514	-1.97736e-62	
0	0.0414294	-1.97736e-62	
0	0.0429198	-1.97736e-62	
0	0.0443873	-1.97736e-62	
0	0.0458649	-1.97736e-62	
0	0.0473343	-1.97736e-62	
0	0.0487946	-1.97736e-62	
0	0.050228	-1.97736e-62	
0	0.0516668	-1.97736e-62	
0	0.0530931	-1.97736e-62	
0	0.0544897	-1.97736e-62	
0	0.0558881	-1.97736e-62	
0	0.057271	-1.97736e-62	
0	0.0586216	-1.97736e-62	
0	0.0599704	-1.97736e-62	
0	0.0612853	-1.97736e-62	
0	0.0625961	-1.97736e-62	
0	0.0638862	-1.97736e-62	
0	0.0651403	-1.97736e-62	
0	0.0663866	-1.97736e-62	
0	0.0676095	-1.97736e-62	
0	0.0687944	-1.97736e-62	
0	0.069968	-1.97736e-62	
0	0.0711155	-1.97736e-62	
0	0.072236	-1.97736e-62	
0	0.0733163	-1.97736e-62	
0	0.0743807	-1.97736e-62	
0	0.0754157	-1.97736e-62	
0	0.0764092	-1.97736e-62	
0	0.0773835	-1.97736e-62	
0	0.0783155	-1.97736e-62	
0	0.0792261	-1.97736e-62	
0	0.0801038	-1.97736e-62	
0	0.0809382	-1.97736e-62	
0	0.0817482	-1.97736e-62	
0	0.0825234	-1.97736e-62	
0	0.0832547	-1.97736e-62	
0	0.0839587	-1.97736e-62	
0	0.0846262	-1.97736e-62	
0	0.0852566	-1.97736e-62	
0	0.0858429	-1.97736e-62	
0	0.0863982	-1.97736e-62	
0	0.0869095	-1.97736e-62	
0	0.0873881	-1.97736e-62	
0	0.0878421	-1.97736e-62	
0	0.0882408	-1.97736e-62	
0	0.0885958	-1.97736e-62	
0	0.0889152	-1.97736e-62	
0	0.0891943	-1.97736e-62	
0	0.0894305	-1.97736e-62	
0	0.0896289	-1.97736e-62	
0	0.0897866	-1.97736e-62	
0	0.0899023	-1.97736e-62	
0	0.0899785	-1.97736e-62	
0	0.0900137	-1.97736e-62	
4.06395e-86	0.0900163	0	
4.06395e-86	0.0900163	0	
4.06395e-86	0.0900163	0	
4.06395e-86	0.0900163	0	
4.06395e-86	0.0900163	0	
4.06395e-86	0.0900163	0	
4.06395e-86	0.0900163	0	
4.06395e-86	0.0900163	0	
4.06395e-86	0.0900163	0	
4.06395e-86	0.0900163	0	
4.06395e-86	0.0900163	0	
4.06395e-86	0.0900163	0	
4.06395e-86	0.0900163	0	
4.06395e-86	0.0900163	0	
4.06395e-86	0.0900163	0	
4.06395e-86	0.0900163	0	
4.06395e-86	0.0900163	0	
4.06395e-86	0.0900163	0	
4.06395e-86	0.0900163	0	
4.06395e-86	0.0900163	0	
4.06395e-86	0.0900163	0	
4.06395e-86	0.0900163	0	
4.06395e-86	0.0900163	0	
4.06395e-86	0.0900163	0	
7.98017e+151	0.0900163	0	
7.98017e+151	0.0900163	0	
7.98017e+151	0.0900163	0	
7.98017e+151	0.0900163	0	
7.98017e+151	0.0900163	0	
7.98017e+151	0.0900163	0	
7.98017e+151	0.0900163	0	
7.98017e+151	0.0900163	0	
7.98017e+151	0.0900163	0	
7.98017e+151	0.0900163	0	
7.98017e+151	0.0900163	0	
7.98017e+151	0.0900163	0	
7.98017e+151	0.0900163	0	
7.98017e+151	0.0900163	0	
7.98017e+151	0.0900163	0	
7.98017e+151	0.0900163	0	
7.98017e+151	0.0900163	0	
7.98017e+151	0.0900163	0	
7.98017e+151	0.0900163	0	
7.98017e+151	0.0900163	0	
7.98017e+151	0.0900163	0	
7.98017e+151	0.0900163	0	
7.98017e+151	0.0900163	0	
7.98017e+151	0.0900163	0	
7.98017e+151	0.0900163	0	
7.98017e+151	0.0900163	0	
7.98017e+151	0.0900163	0	
7.98017e+151	0.0900163	0	
7.98017e+151	0.0900163	0	
7.98017e+151	0.0900163	0	
7.98017e+151	0.0900163	0	
7.98017e+151	0.0900163	0	
7.98017e+151	0.0900163	0	
7.98017e+151	0.0900163	0	
7.98017e+151	0.0900163	0	
7.98017e+151	0.0900163	0	
7.98017e+151	0.0900163	0	
7.98017e+151	0.0900163	0	
7.98017e+151	0.0900163	0	
7.98017e+151	0.0900163	0	
7.98017e+151	0.0900163	0	
7.98017e+151	0.0900163	0	
7.98017e+151	0.0900163	0	
7.98017e+151	0.0900163	0	
7.98017e+151	0.0900163	0	
7.98017e+151	0.0900163	0	
7.98017e+151	0.0900163	0	
7.98017e+151	0.0900163	0	
7.98017e+151	0.0900163	0	
7.98017e+151	0.0900163	0	
7.98017e+151	0.0900163	0	
7.98017e+151	0.0900163	0	
7.98017e+151	0.0900163	0	
7.98017e+151	0.0900163	0	
7.98017e+151	0.0900163	0	
