1.48478e-314	0	-1.99597e-62	
1.48478e-314	0	-1.99597e-62	
1.48478e-314	0	-1.99597e-62	
1.48478e-314	0	-1.99597e-62	
1.48478e-314	0	-1.99597e-62	
1.48478e-314	0	-1.99597e-62	
1.48478e-314	0	-1.99597e-62	
1.48478e-314	0	-1.99597e-62	
1.48478e-314	0	-1.99597e-62	
1.48478e-314	0	-1.99597e-62	
1.48478e-314	0	-1.99597e-62	
1.48478e-314	0	-1.99597e-62	
1.48478e-314	0	-1.99597e-62	
1.48478e-314	0	-1.99597e-62	
1.48478e-314	0	-1.99597e-62	
1.48478e-314	0	-1.99597e-62	
1.48478e-314	0	-1.99597e-62	
1.48478e-314	0	-1.99597e-62	
1.48478e-314	0	-1.99597e-62	
1.48478e-314	0	-1.99597e-62	
1.48478e-314	0	-1.99597e-62	
1.48478e-314	0	-1.99597e-62	
1.48478e-314	0	-1.99597e-62	
1.48478e-314	0	-1.99597e-62	
1.48478e-314	0	-1.99597e-62	
1.48478e-314	0	-1.99597e-62	
1.48478e-314	0	-1.99597e-62	
1.48478e-314	0	-1.99597e-62	
1.48478e-314	0	-1.99597e-62	
1.48478e-314	0	-1.99597e-62	
1.48478e-314	0	-1.99597e-62	
1.48478e-314	0	-1.99597e-62	
1.48478e-314	0	-1.99597e-62	
1.48478e-314	0	-1.99597e-62	
1.48478e-314	0	-1.99597e-62	
1.48478e-314	0	-1.99597e-62	
1.48478e-314	0	-1.99597e-62	
1.48478e-314	0	-1.99597e-62	
1.48478e-314	0	-1.99597e-62	
1.48478e-314	0	-1.99597e-62	
1.48478e-314	0	-1.99597e-62	
1.48478e-314	0	-1.99597e-62	
1.48478e-314	0	-1.99597e-62	
1.48478e-314	0	-1.99597e-62	
1.48478e-314	0	-1.99597e-62	
1.48478e-314	0	-1.99597e-62	
1.48478e-314	0	-1.99597e-62	
1.48478e-314	0	-1.99597e-62	
1.48478e-314	0	-1.99597e-62	
1.48478e-314	0	-1.99597e-62	
1.48478e-314	0	-1.99597e-62	
1.48478e-314	0	-1.99597e-62	
1.48478e-314	0	-1.99597e-62	
1.48478e-314	0	-1.99597e-62	
1.48478e-314	0	-1.99597e-62	
1.48478e-314	0	-1.99597e-62	
1.48478e-314	0	-1.99597e-62	
1.48478e-314	0	-1.99597e-62	
1.48478e-314	0	-1.99597e-62	
1.48478e-314	0	-1.99597e-62	
1.48478e-314	0	-1.99597e-62	
1.48478e-314	0	-1.99597e-62	
1.48478e-314	0	-1.99597e-62	
1.48478e-314	0	-1.99597e-62	
1.48478e-314	0	-1.99597e-62	
1.48478e-314	0	-1.99597e-62	
1.48478e-314	0	-1.99597e-62	
1.48478e-314	0	-1.99597e-62	
1.48478e-314	0	-1.99597e-62	
1.48478e-314	0	-1.99597e-62	
1.48478e-314	0	-1.99597e-62	
1.48478e-314	0	-1.99597e-62	
1.48478e-314	0	-1.99597e-62	
1.48478e-314	0	-1.99597e-62	
1.48478e-314	0	-1.99597e-62	
1.48478e-314	0	-1.99597e-62	
1.48478e-314	0	-1.99597e-62	
1.48478e-314	0	-1.99597e-62	
1.48478e-314	0	-1.99597e-62	
1.48478e-314	0	-1.99597e-62	
1.48478e-314	0	-1.99597e-62	
1.48478e-314	0	-1.99597e-62	
1.48478e-314	0	-1.99597e-62	
1.48478e-314	0	-1.99597e-62	
1.48478e-314	0	-1.99597e-62	
1.48478e-314	0	-1.99597e-62	
1.48478e-314	0	-1.99597e-62	
1.48478e-314	0	-1.99597e-62	
1.48478e-314	0	-1.99597e-62	
1.48478e-314	0	-1.99597e-62	
1.48478e-314	0	-1.99597e-62	
1.48478e-314	0	-1.99597e-62	
1.48478e-314	0	-1.99597e-62	
1.48478e-314	0	-1.99597e-62	
1.48478e-314	0	-1.99597e-62	
1.48478e-314	0	-1.99597e-62	
1.48478e-314	0	-1.99597e-62	
1.48478e-314	0	-1.99597e-62	
1.48478e-314	0	-1.99597e-62	
1.48478e-314	0	-1.99597e-62	
1.48478e-314	0	-1.99597e-62	
1.48478e-314	0	-1.99597e-62	
1.48478e-314	0	-1.99597e-62	
1.48478e-314	0	-1.99597e-62	
1.48478e-314	0	-1.99597e-62	
1.48478e-314	0	-1.99597e-62	
1.48478e-314	0	-1.99597e-62	
1.48478e-314	0	-1.99597e-62	
2.122e-314	0	0	
2.122e-314	0	0	
2.122e-314	0	0	
2.122e-314	0	0	
2.122e-314	0	0	
2.122e-314	0	0	
2.122e-314	0	0	
2.122e-314	0	0	
2.122e-314	0	0	
2.122e-314	0	0	
2.122e-314	0	0	
2.122e-314	0	0	
2.122e-314	0	0	
2.122e-314	0	0	
2.122e-314	0	0	
2.122e-314	0	0	
2.122e-314	0	0	
2.122e-314	0	0	
2.122e-314	0	0	
2.122e-314	0	0	
2.122e-314	0	0	
2.122e-314	0	0	
2.122e-314	0	0	
2.122e-314	0	0	
3.58617e-312	0	0	
3.58617e-312	0	0	
3.58617e-312	0	0	
3.58617e-312	0	0	
3.58617e-312	0	0	
3.58617e-312	0	0	
3.58617e-312	0	0	
3.58617e-312	0	0	
3.58617e-312	0	0	
3.58617e-312	0	0	
3.58617e-312	0	0	
3.58617e-312	0	0	
3.58617e-312	0	0	
3.58617e-312	0	0	
3.58617e-312	0	0	
3.58617e-312	0	0	
3.58617e-312	0	0	
3.58617e-312	0	0	
3.58617e-312	0	0	
3.58617e-312	0	0	
3.58617e-312	0	0	
3.58617e-312	0	0	
3.58617e-312	0	0	
3.58617e-312	0	0	
3.58617e-312	0	0	
3.58617e-312	0	0	
3.58617e-312	0	0	
3.58617e-312	0	0	
3.58617e-312	0	0	
3.58617e-312	0	0	
3.58617e-312	0	0	
3.58617e-312	0	0	
3.58617e-312	0	0	
3.58617e-312	0	0	
3.58617e-312	0	0	
3.58617e-312	0	0	
3.58617e-312	0	0	
3.58617e-312	0	0	
3.58617e-312	0	0	
3.58617e-312	0	0	
3.58617e-312	0	0	
3.58617e-312	0	0	
3.58617e-312	0	0	
3.58617e-312	0	0	
3.58617e-312	0	0	
3.58617e-312	0	0	
3.58617e-312	0	0	
3.58617e-312	0	0	
3.58617e-312	0	0	
3.58617e-312	0	0	
3.58617e-312	0	0	
3.58617e-312	0	0	
3.58617e-312	0	0	
3.58617e-312	0	0	
3.58617e-312	0	0	
