7.053
7.139
7.226
7.312
7.399
7.486
7.572
7.659
7.746
7.832
7.919
8.006
8.093
8.179
8.266
8.352
8.439
8.526
8.612
8.699
8.786
8.872
8.959
9.046
9.132
9.219
9.306
9.392
9.479
9.566
9.652
9.739
9.829
9.916
10.006
10.092
10.179
10.266
10.352
10.439
10.525
10.612
10.699
10.786
10.872
10.959
11.046
11.132
11.219
11.306
11.392
11.479
11.566
11.652
11.739
11.825
11.912
11.999
12.086
12.172
12.259
12.349
12.436
12.523
12.609
12.696
12.783
12.87
12.956
13.042
13.13
13.216
13.302
13.389
13.476
13.562
13.649
13.736
13.823
13.909
13.996
14.082
14.169
14.256
14.342
14.429
14.516
14.602
14.689
14.776
14.862
14.949
15.036
15.122
15.209
15.296
15.382
15.469
15.556
15.642
15.729
15.816
15.902
15.989
16.076
16.162
16.249
16.335
16.422
16.509
16.596
16.682
16.769
16.856
16.942
17.029
17.116
17.202
17.289
17.376
17.462
17.549
17.635
17.722
17.809
17.895
17.982
18.069
18.156
18.242
18.329
18.416
18.502
18.589
18.675
18.762
18.849
18.935
19.022
19.109
19.195
19.282
19.369
19.456
19.542
19.629
19.715
19.802
19.889
19.975
20.062
20.149
20.235
20.322
20.409
20.495
20.582
20.669
20.755
20.842
20.929
21.015
21.105
21.192
21.279
21.365
21.452
21.539
21.625
21.712
21.799
21.885
21.972
22.058
22.145
22.232
22.319
22.405
22.492
22.579
22.665
22.752
22.839
22.925
23.012
23.099
23.185
23.272
23.358
23.445
23.532
23.619
23.705
23.792
23.879
23.965
24.052
24.139
24.225
24.312
24.398
24.485
24.572
24.658
24.748
24.835
24.922
25.008
25.095
25.182
25.269
25.355
25.442
25.528
25.615
25.702
25.788
25.875
25.962
26.048
26.135
26.222
26.312
26.398
26.485
26.572
26.658
26.745
26.832
26.918
27.005
27.092
27.178
27.265
27.352
27.438
27.525
27.612
27.698
27.785
27.872
27.958
28.045
28.132
28.218
28.305
28.395
28.482
28.568
28.655
28.742
28.828
28.915
29.001
29.088
29.175
29.262
29.348
29.435
29.525
29.615
29.702
29.792
29.878
